<?xml version="1.0" encoding="UTF-8" standalone="no"?>
<svg
   xmlns:dc="http://purl.org/dc/elements/1.1/"
   xmlns:cc="http://creativecommons.org/ns#"
   xmlns:rdf="http://www.w3.org/1999/02/22-rdf-syntax-ns#"
   xmlns:svg="http://www.w3.org/2000/svg"
   xmlns="http://www.w3.org/2000/svg"
   xmlns:xlink="http://www.w3.org/1999/xlink"
   xmlns:sodipodi="http://sodipodi.sourceforge.net/DTD/sodipodi-0.dtd"
   xmlns:inkscape="http://www.inkscape.org/namespaces/inkscape"
   width="50mm"
   height="50mm"
   viewBox="0 0 50 50"
   version="1.1"
   id="svg1039"
   inkscape:version="1.0.2 (e86c870879, 2021-01-15)"
   sodipodi:docname="madebyhumans2.svg">
  <defs
     id="defs1033" />
  <sodipodi:namedview
     id="base"
     pagecolor="#ffffff"
     bordercolor="#666666"
     borderopacity="1.0"
     inkscape:pageopacity="0.0"
     inkscape:pageshadow="2"
     inkscape:zoom="3.959798"
     inkscape:cx="116.9663"
     inkscape:cy="91.820864"
     inkscape:document-units="mm"
     inkscape:current-layer="layer8"
     inkscape:document-rotation="0"
     showgrid="false"
     inkscape:window-width="1920"
     inkscape:window-height="1016"
     inkscape:window-x="0"
     inkscape:window-y="27"
     inkscape:window-maximized="1" />
  <metadata
     id="metadata1036">
    <rdf:RDF>
      <cc:Work
         rdf:about="">
        <dc:format>image/svg+xml</dc:format>
        <dc:type
           rdf:resource="http://purl.org/dc/dcmitype/StillImage" />
        <dc:title></dc:title>
      </cc:Work>
    </rdf:RDF>
  </metadata>
  <g
     inkscape:label="Layer 1"
     inkscape:groupmode="layer"
     id="layer1"
     style="display:none">
    <circle
       style="color:#000000;overflow:visible;fill:#ffffff;fill-opacity:1;fill-rule:evenodd;stroke:#ffffff;stroke-width:0;stroke-linecap:round;stroke-linejoin:miter;stroke-miterlimit:4;stroke-dasharray:none;stroke-dashoffset:72.5499;stroke-opacity:1;stop-color:#000000"
       id="path1029"
       cx="25.086794"
       cy="24.899881"
       inkscape:export-filename="/home/user/Pictures/masto-pics/madebyhumans_3.png"
       inkscape:export-xdpi="238.74001"
       inkscape:export-ydpi="238.74001"
       r="24.031475" />
    <path
       id="path899-1-5"
       style="color:#000000;overflow:visible;fill:#8b8b8b;fill-opacity:1;fill-rule:evenodd;stroke:#000000;stroke-width:0.705879;stroke-linecap:round;stroke-linejoin:round;stroke-miterlimit:4;stroke-dasharray:none;stroke-dashoffset:72.5499;stroke-opacity:1;stop-color:#000000"
       d="m 38.421282,9.57723 c 0.190182,1.007536 -0.710643,2.023419 -2.012061,2.269082 -1.301393,0.245646 -5.708512,0.87926 -5.898693,-0.128293 -0.190164,-1.007536 1.636756,-3.1679837 3.75118,-3.4646998 3.129955,-0.439233 3.969393,0.3163396 4.159574,1.3238579 z"
       sodipodi:nodetypes="sssss"
       inkscape:export-xdpi="238.74001"
       inkscape:export-ydpi="238.74001"
       inkscape:export-filename="/home/user/Pictures/masto-pics/madebyhumans_3.png" />
    <ellipse
       style="color:#000000;overflow:visible;fill:#ffffff;fill-opacity:1;fill-rule:evenodd;stroke:#000000;stroke-width:0.705879;stroke-linecap:round;stroke-linejoin:round;stroke-miterlimit:4;stroke-dasharray:none;stroke-dashoffset:72.5499;stroke-opacity:1;stop-color:#000000"
       id="path905-0"
       cx="9.6758757"
       cy="33.687794"
       rx="3.7072976"
       ry="2.5032771"
       transform="rotate(-52.368392)"
       inkscape:export-xdpi="238.74001"
       inkscape:export-ydpi="238.74001"
       inkscape:export-filename="/home/user/Pictures/masto-pics/madebyhumans_3.png" />
    <ellipse
       style="color:#000000;overflow:visible;fill:#6168b5;fill-opacity:1;fill-rule:evenodd;stroke:#000000;stroke-width:0.705879;stroke-linecap:round;stroke-linejoin:round;stroke-miterlimit:4;stroke-dasharray:none;stroke-dashoffset:72.5499;stroke-opacity:1;stop-color:#000000"
       id="path903-3"
       cx="24.126518"
       cy="27.351067"
       rx="1.0724769"
       ry="0.70615298"
       transform="rotate(-32.547077)"
       inkscape:export-xdpi="238.74001"
       inkscape:export-ydpi="238.74001"
       inkscape:export-filename="/home/user/Pictures/masto-pics/madebyhumans_3.png" />
    <ellipse
       style="color:#000000;overflow:visible;fill:#8a8a8c;fill-opacity:1;fill-rule:evenodd;stroke:#000000;stroke-width:0.705879;stroke-linecap:round;stroke-linejoin:round;stroke-miterlimit:4;stroke-dasharray:none;stroke-dashoffset:72.5499;stroke-opacity:1;stop-color:#000000"
       id="path899-6"
       transform="rotate(-35.418666)"
       ry="1.8565023"
       rx="2.3980076"
       cy="30.582489"
       cx="23.060108"
       inkscape:export-xdpi="238.74001"
       inkscape:export-ydpi="238.74001"
       inkscape:export-filename="/home/user/Pictures/masto-pics/madebyhumans_3.png" />
    <ellipse
       style="color:#000000;overflow:visible;fill:#ffffff;fill-opacity:1;fill-rule:evenodd;stroke:#000000;stroke-width:0.711789;stroke-linecap:round;stroke-linejoin:round;stroke-miterlimit:4;stroke-dasharray:none;stroke-dashoffset:72.5499;stroke-opacity:1;stop-color:#000000"
       id="path905-3-1"
       cx="0.13488996"
       cy="35.176201"
       rx="7.9697351"
       ry="5.6438608"
       transform="matrix(0.681658,-0.73167095,0.84302593,0.53787292,0,0)"
       inkscape:export-xdpi="238.74001"
       inkscape:export-ydpi="238.74001"
       inkscape:export-filename="/home/user/Pictures/masto-pics/madebyhumans_3.png" />
    <ellipse
       style="color:#000000;overflow:visible;fill:#747474;fill-opacity:1;fill-rule:evenodd;stroke:#000000;stroke-width:0.717324;stroke-linecap:round;stroke-linejoin:round;stroke-miterlimit:4;stroke-dasharray:none;stroke-dashoffset:72.5499;stroke-opacity:1;stop-color:#000000"
       id="path905-3-5-0"
       cx="-3.0430434"
       cy="33.566868"
       rx="8.4745636"
       ry="4.6561408"
       transform="matrix(0.70831379,-0.70589771,0.86036909,0.50967149,0,0)"
       inkscape:export-xdpi="238.74001"
       inkscape:export-ydpi="238.74001"
       inkscape:export-filename="/home/user/Pictures/masto-pics/madebyhumans_3.png" />
    <path
       id="path905-3-5-6-2-6"
       style="color:#000000;overflow:visible;fill:#747474;fill-opacity:1;fill-rule:evenodd;stroke:#000000;stroke-width:0.705879;stroke-linecap:round;stroke-linejoin:round;stroke-miterlimit:4;stroke-dasharray:none;stroke-dashoffset:72.5499;stroke-opacity:1;stop-color:#000000"
       d="m 29.181358,22.210641 c 6.290491,1.980219 -4.156743,2.352182 -7.140351,6.380067 -2.692239,3.634534 -10.476887,12.41413 -13.1676926,12.87161 6.2271066,-7.26111 8.2996886,-9.807796 10.1719256,-13.68907 2.033496,-4.215543 7.740366,-6.316785 10.136118,-5.562607 z"
       sodipodi:nodetypes="sscss"
       inkscape:export-xdpi="238.74001"
       inkscape:export-ydpi="238.74001"
       inkscape:export-filename="/home/user/Pictures/masto-pics/madebyhumans_3.png" />
    <path
       id="path1143-32"
       style="color:#000000;overflow:visible;fill:#f17c02;fill-opacity:1;fill-rule:evenodd;stroke:#000000;stroke-width:0.705879;stroke-linecap:round;stroke-linejoin:round;stroke-miterlimit:4;stroke-dasharray:none;stroke-dashoffset:72.5499;stroke-opacity:1;stop-color:#000000"
       d="m 29.609774,26.038057 c 0,0.78896 -0.06988,1.020206 -0.388128,1.020206 -0.31828,0 -0.427356,-0.15794 -0.427356,-0.946883 0,-0.788961 -0.06741,-1.079218 0.250798,-1.079236 0.318281,1.8e-5 0.564686,0.216952 0.564686,1.005913 z"
       sodipodi:nodetypes="sssss"
       inkscape:export-xdpi="238.74001"
       inkscape:export-ydpi="238.74001"
       inkscape:export-filename="/home/user/Pictures/masto-pics/madebyhumans_3.png" />
    <path
       id="path905-3-5-6-2-9-0"
       style="color:#000000;overflow:visible;fill:#ffffff;fill-opacity:1;fill-rule:evenodd;stroke:#000000;stroke-width:0.705879;stroke-linecap:round;stroke-linejoin:round;stroke-miterlimit:4;stroke-dasharray:none;stroke-dashoffset:72.5499;stroke-opacity:1;stop-color:#000000"
       d="m 30.467663,21.988607 c 6.290491,1.980219 -5.627953,3.67131 -7.575207,8.290175 -2.740486,6.500366 -6.589571,12.35713 -9.280382,12.81461 6.227103,-7.26111 3.797804,-9.407987 5.670042,-13.289261 2.033495,-4.215543 8.789795,-8.569702 11.185547,-7.815524 z"
       sodipodi:nodetypes="sscss"
       inkscape:export-xdpi="238.74001"
       inkscape:export-ydpi="238.74001"
       inkscape:export-filename="/home/user/Pictures/masto-pics/madebyhumans_3.png" />
    <path
       id="path905-3-5-6-6"
       style="color:#000000;overflow:visible;fill:#8b8b8b;fill-opacity:1;fill-rule:evenodd;stroke:#000000;stroke-width:0.705879;stroke-linecap:round;stroke-linejoin:round;stroke-miterlimit:4;stroke-dasharray:none;stroke-dashoffset:72.5499;stroke-opacity:1;stop-color:#000000"
       d="m 32.518188,16.361466 c 2.212471,1.310622 -1.992342,6.766553 -6.34502,8.487026 -4.206402,1.662627 -7.463802,2.657651 -12.099624,2.286871 5.771192,-5.127785 5.277324,-5.249267 8.157468,-8.505997 3.100608,-3.506029 8.074723,-3.578523 10.287176,-2.2679 z"
       sodipodi:nodetypes="sscss"
       inkscape:export-xdpi="238.74001"
       inkscape:export-ydpi="238.74001"
       inkscape:export-filename="/home/user/Pictures/masto-pics/madebyhumans_3.png" />
    <path
       id="path903-2-1"
       style="color:#000000;overflow:visible;fill:#161616;fill-opacity:1;fill-rule:evenodd;stroke:#000000;stroke-width:0.705879;stroke-linecap:round;stroke-linejoin:round;stroke-miterlimit:4;stroke-dasharray:none;stroke-dashoffset:72.5499;stroke-opacity:1;stop-color:#000000"
       d="m 37.656533,13.739567 c 0.337922,-1.450669 -0.65815,-1.949778 -0.339111,-3.041684 0.119117,-0.407345 0.0053,-0.606985 0.500034,-1.0023301 0.51035,-0.4080684 1.181164,0.9254951 1.178729,2.0630361 -0.0018,1.137541 -0.68622,1.982814 -1.339652,1.980978 z"
       sodipodi:nodetypes="csssc"
       inkscape:export-xdpi="238.74001"
       inkscape:export-ydpi="238.74001"
       inkscape:export-filename="/home/user/Pictures/masto-pics/madebyhumans_3.png" />
    <path
       id="path903-2-7-5"
       style="color:#000000;overflow:visible;fill:#161616;fill-opacity:1;fill-rule:evenodd;stroke:#000000;stroke-width:0.705879;stroke-linecap:round;stroke-linejoin:round;stroke-miterlimit:4;stroke-dasharray:none;stroke-dashoffset:72.5499;stroke-opacity:1;stop-color:#000000"
       d="m 37.656533,13.739567 c 0.0035,-1.148059 0.307781,-0.668273 0.237723,-1.746255 -0.02753,-0.422416 -0.336475,-0.81132 -0.717851,-0.313216 -0.350063,0.457215 -0.369704,0.649461 -0.25401,0.987471 0.108176,0.315687 0.342421,1.027671 0.734121,1.071983 z"
       sodipodi:nodetypes="cssscc"
       inkscape:export-xdpi="238.74001"
       inkscape:export-ydpi="238.74001"
       inkscape:export-filename="/home/user/Pictures/masto-pics/madebyhumans_3.png" />
    <ellipse
       style="color:#000000;overflow:visible;fill:#ffffff;fill-opacity:1;fill-rule:evenodd;stroke:#ffffff;stroke-width:0.591865;stroke-linecap:round;stroke-linejoin:round;stroke-miterlimit:4;stroke-dasharray:none;stroke-dashoffset:72.5499;stroke-opacity:1;stop-color:#000000"
       id="path1101-0-5"
       cx="31.914812"
       cy="-19.638746"
       rx="0.34753063"
       ry="0.47138584"
       transform="matrix(0.6647776,0.74704133,-0.70835,0.70586137,0,0)"
       inkscape:export-xdpi="238.74001"
       inkscape:export-ydpi="238.74001"
       inkscape:export-filename="/home/user/Pictures/masto-pics/madebyhumans_3.png" />
    <ellipse
       style="color:#000000;overflow:visible;fill:#000000;fill-opacity:1;fill-rule:evenodd;stroke:#0f0f0f;stroke-width:0;stroke-linecap:round;stroke-linejoin:round;stroke-miterlimit:4;stroke-dasharray:none;stroke-dashoffset:72.5499;stroke-opacity:1;stop-color:#000000"
       id="path1101-4"
       cx="31.91074"
       cy="-19.636072"
       rx="0.22991821"
       ry="0.31179059"
       transform="matrix(0.66343661,0.74823249,-0.7070739,0.70713966,0,0)"
       inkscape:export-xdpi="238.74001"
       inkscape:export-ydpi="238.74001"
       inkscape:export-filename="/home/user/Pictures/masto-pics/madebyhumans_3.png" />
    <path
       id="path1143-3-6-7"
       style="color:#000000;overflow:visible;fill:#7a7a7a;fill-opacity:1;fill-rule:evenodd;stroke:#000000;stroke-width:0.705879;stroke-linecap:round;stroke-linejoin:round;stroke-miterlimit:4;stroke-dasharray:none;stroke-dashoffset:72.5499;stroke-opacity:1;stop-color:#000000"
       d="m 33.005915,28.697119 c -0.709849,-0.208904 1.029401,-1.441475 -0.182717,-1.712197 -1.023612,-0.228616 -1.706761,-0.362557 -2.064995,-0.316216 -0.782449,0.101294 -3.08349,0.83052 -3.124325,0.514904 -0.04076,-0.315652 1.88902,-1.13853 3.276883,-1.093971 0.479274,0.06035 1.325323,0.04659 2.432088,0.231316 1.01853,0.169941 0.929236,2.748798 -0.336934,2.376164 z"
       sodipodi:nodetypes="sssscss"
       inkscape:export-xdpi="238.74001"
       inkscape:export-ydpi="238.74001"
       inkscape:export-filename="/home/user/Pictures/masto-pics/madebyhumans_3.png" />
    <path
       id="path1143-3-65"
       style="color:#000000;overflow:visible;fill:#7a7a7a;fill-opacity:1;fill-rule:evenodd;stroke:#000000;stroke-width:0.705879;stroke-linecap:round;stroke-linejoin:round;stroke-miterlimit:4;stroke-dasharray:none;stroke-dashoffset:72.5499;stroke-opacity:1;stop-color:#000000"
       d="m 31.565022,29.117717 c -0.709849,-0.208905 1.029401,-1.441475 -0.182716,-1.712197 -1.023613,-0.228616 -1.706762,-0.362557 -2.064995,-0.316216 -0.782449,0.101294 -3.08349,0.830519 -3.124325,0.514903 -0.04077,-0.315651 1.889019,-1.138529 3.276883,-1.09397 0.479274,0.06035 1.325322,0.04659 2.432087,0.231316 1.01853,0.16994 0.929236,2.748798 -0.336934,2.376164 z"
       sodipodi:nodetypes="sssscss"
       inkscape:export-xdpi="238.74001"
       inkscape:export-ydpi="238.74001"
       inkscape:export-filename="/home/user/Pictures/masto-pics/madebyhumans_3.png" />
    <rect
       style="color:#000000;overflow:visible;fill:#000000;fill-opacity:1;fill-rule:evenodd;stroke:#ffffff;stroke-width:0.529409;stroke-linecap:round;stroke-linejoin:miter;stroke-miterlimit:4;stroke-dasharray:none;stroke-dashoffset:72.5499;stroke-opacity:1;stop-color:#000000"
       id="rect1027"
       width="1.3457294"
       height="1.3455373"
       x="34.485477"
       y="9.3205414"
       rx="0"
       ry="0"
       inkscape:export-filename="/home/user/Pictures/masto-pics/madebyhumans_3.png"
       inkscape:export-xdpi="238.74001"
       inkscape:export-ydpi="238.74001" />
    <g
       id="path1208-6"
       style="fill:#ffffff;fill-opacity:1;stroke:#000000;stroke-width:0.8;stroke-miterlimit:4;stroke-dasharray:none;stroke-opacity:1"
       inkscape:export-filename="/home/user/Pictures/masto-pics/madebyhumans_3.png"
       inkscape:export-xdpi="238.74001"
       inkscape:export-ydpi="238.74001"
       transform="matrix(1.7646967,0,0,1.7646967,-162.77169,-231.95203)">
      <path
         id="path1330"
         style="color:#000000;font-style:normal;font-variant:normal;font-weight:normal;font-stretch:normal;font-size:medium;line-height:normal;font-family:sans-serif;font-variant-ligatures:normal;font-variant-position:normal;font-variant-caps:normal;font-variant-numeric:normal;font-variant-alternates:normal;font-variant-east-asian:normal;font-feature-settings:normal;font-variation-settings:normal;text-indent:0;text-align:start;text-decoration:none;text-decoration-line:none;text-decoration-style:solid;text-decoration-color:#000000;letter-spacing:normal;word-spacing:normal;text-transform:none;writing-mode:lr-tb;direction:ltr;text-orientation:mixed;dominant-baseline:auto;baseline-shift:baseline;text-anchor:start;white-space:normal;shape-padding:0;shape-margin:0;inline-size:0;clip-rule:nonzero;display:inline;overflow:visible;visibility:visible;isolation:auto;mix-blend-mode:normal;color-interpolation:sRGB;color-interpolation-filters:linearRGB;solid-color:#000000;solid-opacity:1;vector-effect:none;fill:#ffffff;fill-opacity:1;fill-rule:evenodd;stroke:#000000;stroke-width:0.799999;stroke-linecap:round;stroke-linejoin:round;stroke-miterlimit:4;stroke-dasharray:none;stroke-dashoffset:72.5499;stroke-opacity:1;color-rendering:auto;image-rendering:auto;shape-rendering:auto;text-rendering:auto;enable-background:accumulate;stop-color:#000000;stop-opacity:1"
         d="m 106.45344,137.86744 c -4.23489,0 -7.682732,3.44783 -7.682732,7.68273 0,4.23489 3.447842,7.68274 7.682732,7.68274 4.23489,0 7.68326,-3.44785 7.68326,-7.68274 0,-4.2349 -3.44837,-7.68273 -7.68326,-7.68273 z m 0,1.39578 c 3.48039,0 6.28696,2.80655 6.28696,6.28695 0,1.51816 -0.53426,2.90785 -1.42524,3.99252 l -8.20932,-9.31726 c 0.96863,-0.60893 2.11536,-0.96221 3.3476,-0.96221 z m -4.90254,2.34663 8.19485,9.30072 c -0.95669,0.58744 -2.08381,0.92656 -3.29231,0.92656 -3.48039,0 -6.28643,-2.80657 -6.28643,-6.28696 0,-1.49417 0.51815,-2.86334 1.38389,-3.94032 z" />
    </g>
    <path
       id="path2147"
       style="color:#000000;display:inline;overflow:visible;fill:none;fill-opacity:1;fill-rule:evenodd;stroke:#000000;stroke-width:0;stroke-linecap:round;stroke-linejoin:round;stroke-miterlimit:4;stroke-dasharray:none;stroke-dashoffset:72.5499;stroke-opacity:1;stop-color:#000000"
       d="M 30.029895,41.449806 A 17.163612,17.163612 0 0 1 8.5022269,30.236482 17.163612,17.163612 0 0 1 19.715543,8.7088051 17.163612,17.163612 0 0 1 41.243244,19.92213 17.163612,17.163612 0 0 1 30.029895,41.449806 Z"
       inkscape:export-filename="/home/user/Pictures/masto-pics/madebyhumans_3.png"
       inkscape:export-xdpi="238.74001"
       inkscape:export-ydpi="238.74001" />
    <text
       xml:space="preserve"
       id="text982"
       style="font-style:normal;font-weight:normal;font-size:4.23333px;line-height:125%;font-family:sans-serif;letter-spacing:0.264583px;word-spacing:0px;white-space:pre;display:inline;fill:#000000;fill-opacity:1;stroke:none;stroke-width:0.264583px;stroke-linecap:butt;stroke-linejoin:miter;stroke-opacity:1"
       inkscape:export-filename="/home/user/Pictures/masto-pics/madebyhumans_3.png"
       inkscape:export-xdpi="238.74001"
       inkscape:export-ydpi="238.74001"><textPath
         xlink:href="#path2147"
         id="textPath1022"
         style="font-size:4.23333px">             <tspan
   style="font-style:normal;font-variant:normal;font-weight:normal;font-stretch:normal;font-size:4.23333px;font-family:Lato;-inkscape-font-specification:Lato"
   id="tspan994"> Made by Humans                 For Humans       </tspan></textPath></text>
  </g>
  <g
     inkscape:groupmode="layer"
     id="layer9"
     inkscape:label="Layer 3"
     style="display:inline">
    <path
       d="m 20.811823,13.19068 q 0.251942,0.06873 0.41227,0.229039 0.183231,0.183226 0.503883,0.893245 0.320653,0.732927 0.870345,2.542328 0.549694,1.8094 0.847442,3.206534 c 0,0 0.306249,1.357056 0.320654,1.397135 0.01441,0.04008 0.04876,0.05725 0.111748,0.04578 0.06298,-0.01148 0.04858,-0.114519 0.04858,-0.114519 L 23.72061,19.993083 q -0.206135,-1.397133 -0.641308,-3.069112 -0.412268,-1.671986 -0.503883,-2.267484 -0.09162,-0.595499 0,-0.824538 0.09162,-0.229039 0.36646,-0.412266 0.274846,-0.160331 0.618404,-0.06873 0.343558,0.09162 0.572595,0.320656 0.251943,0.251942 0.526789,0.84744 0.274846,0.5955 0.618403,1.740693 0.343558,1.145193 0.687115,2.748457 0.366462,1.626174 0.435173,2.382004 0.09162,0.755823 0.48098,1.649075 0.389366,0.893246 0.801636,1.488746 0.435172,0.618407 0.801634,0.984868 0.389364,0.36646 0.549691,0.343557 0.160327,-0.02289 0.343558,-0.251947 0.206134,-0.20613 0.824537,-1.603264 0.618404,-1.397135 0.984864,-1.83231 0.366462,-0.435167 0.755827,-0.73292 0.389366,-0.297754 0.77873,-0.458078 0.412269,-0.160323 0.801634,-0.160323 0.389366,0 0.572596,0.137421 0.183231,0.160324 0.160328,0.320656 0,0.160324 -0.320655,0.732921 -0.320654,0.572596 -0.870345,2.08425 -0.549692,1.534556 -0.618404,1.878115 -0.0458,0.36646 0,0.595498 0.04581,0.229038 0.0229,0.939057 -0.0229,0.732922 -0.11452,0.984863 -0.06872,0.251941 -1.099384,1.969729 -1.007769,1.740692 -1.55746,2.381998 -0.549692,0.641309 -0.526788,1.236808 0.0229,0.618403 0.412269,2.725555 l 0.389364,2.130057 h -3.5959 -3.572997 l 0.0229,-0.687114 q 0.0229,-0.664213 -0.114518,-1.420039 -0.114517,-0.75583 -0.572595,-1.511657 -0.435172,-0.755826 -1.190999,-1.763595 -0.755827,-0.984865 -1.213902,-1.786497 -0.435174,-0.778731 -0.939058,-2.08425 -0.480981,-1.282617 -0.755826,-2.381997 -0.274845,-1.07648 -1.397133,-3.366866 -1.122288,-2.267478 -1.305519,-2.817172 -0.183231,-0.549687 -0.183231,-0.824538 0,-0.251941 0.229039,-0.503882 0.229038,-0.229039 0.389364,-0.251942 0.160328,-0.02289 0.320654,0.04578 0.183231,0.06873 1.694884,2.588132 c 0,0 1.439986,2.422084 1.511652,2.519426 0.07167,0.09734 0.655531,0.383637 0.480981,-0.50389 q -0.174551,-0.887519 0,0 0,-0.389362 -1.465846,-3.985267 c 0,0 -1.265252,-2.885878 -1.356867,-3.286693 -0.09162,-0.400822 -0.06317,-0.584048 -0.06317,-0.584048 q 0.04581,-0.274851 0.206133,-0.435175 0.160329,-0.137422 0.435174,-0.229039 0.29775,-0.06873 0.458076,-0.02289 0.183231,0.06873 0.320654,0.20613 0.137423,0.160331 0.320654,0.641311 0.206133,0.503882 1.213903,2.496515 1.007769,1.992634 1.259711,2.748464 c 0,0 0.208906,0.652756 0.274846,0.755825 0.06594,0.103066 0.363506,0.355009 0.29775,-0.183234 q -0.06576,-0.538237 0,0 0,-0.251942 -0.412269,-1.92392 -0.389365,-1.671979 -1.030673,-3.916553 c 0,0 -0.440715,-1.4773 -0.532331,-1.901017 -0.09162,-0.423724 -0.0458,-0.721476 -0.0458,-0.721476 0.183231,-0.412266 0.228672,-0.480981 0.601043,-0.584048 0.372369,-0.103062 0.549691,-0.06873 0.549691,-0.06873 z"
       stroke="#000000"
       stroke-width="0.0229038"
       fill="#000000"
       id="path1792"
       style="display:inline" />
    <path
       style="color:#000000;font-style:normal;font-variant:normal;font-weight:normal;font-stretch:normal;font-size:medium;line-height:normal;font-family:sans-serif;font-variant-ligatures:normal;font-variant-position:normal;font-variant-caps:normal;font-variant-numeric:normal;font-variant-alternates:normal;font-variant-east-asian:normal;font-feature-settings:normal;font-variation-settings:normal;text-indent:0;text-align:start;text-decoration:none;text-decoration-line:none;text-decoration-style:solid;text-decoration-color:#000000;letter-spacing:normal;word-spacing:normal;text-transform:none;writing-mode:lr-tb;direction:ltr;text-orientation:mixed;dominant-baseline:auto;baseline-shift:baseline;text-anchor:start;white-space:normal;shape-padding:0;shape-margin:0;inline-size:0;clip-rule:nonzero;display:inline;overflow:visible;visibility:visible;isolation:auto;mix-blend-mode:normal;color-interpolation:sRGB;color-interpolation-filters:linearRGB;solid-color:#000000;solid-opacity:1;vector-effect:none;fill:none;fill-opacity:1;fill-rule:evenodd;stroke:#000000;stroke-width:1.2;stroke-linecap:round;stroke-linejoin:round;stroke-miterlimit:4;stroke-dasharray:none;stroke-dashoffset:72.5499;stroke-opacity:1;color-rendering:auto;image-rendering:auto;shape-rendering:auto;text-rendering:auto;enable-background:accumulate;stop-color:#000000"
       d="M 26.621094,6.5371094 C 24.212782,6.3053954 21.722365,6.5416285 19.275391,7.3125 9.4875014,10.395967 4.0219994,20.887893 7.1054688,30.675781 10.188933,40.463669 20.682815,45.929166 30.470703,42.845703 40.258606,39.762251 45.724091,29.270321 42.640625,19.482422 40.328027,12.141492 33.846028,7.2322513 26.621094,6.5371094 Z m -0.392578,4.3222656 c 5.538609,0.520505 10.475645,4.274469 12.257812,9.931641 2.376224,7.542889 -1.781326,15.524177 -9.324219,17.90039 -7.542881,2.376222 -15.526121,-1.781338 -17.902343,-9.324218 -2.3762271,-7.542882 1.781337,-15.524166 9.324218,-17.900391 1.885723,-0.59406 3.798328,-0.780924 5.644532,-0.607422 z"
       id="path2147-6-8" />
  </g>
  <g
     inkscape:groupmode="layer"
     id="layer8"
     inkscape:label="Layer 2"
     style="display:inline">
    <path
       id="path2147-6"
       style="color:#000000;display:inline;overflow:visible;fill:none;fill-opacity:1;fill-rule:evenodd;stroke:#000000;stroke-width:0;stroke-linecap:round;stroke-linejoin:round;stroke-miterlimit:4;stroke-dasharray:none;stroke-dashoffset:72.5499;stroke-opacity:1;stop-color:#000000"
       d="M 29.505118,39.783993 A 15.417094,15.417094 0 0 1 10.16804,29.711703 15.417094,15.417094 0 0 1 20.240323,10.374618 15.417094,15.417094 0 0 1 39.57743,20.446908 15.417094,15.417094 0 0 1 29.505118,39.783993 Z"
       inkscape:export-filename="/home/user/Pictures/masto-pics/madebyhumans_3.png"
       inkscape:export-xdpi="238.74001"
       inkscape:export-ydpi="238.74001" />
    <text
       xml:space="preserve"
       id="text982-3"
       style="font-style:normal;font-weight:normal;font-size:2.82222px;line-height:125%;font-family:sans-serif;letter-spacing:0.264583px;word-spacing:0px;white-space:pre;display:inline;fill:#000000;fill-opacity:1;stroke:none;stroke-width:0.264583px;stroke-linecap:butt;stroke-linejoin:miter;stroke-opacity:1"
       inkscape:export-filename="/home/user/Pictures/masto-pics/madebyhumans_3.png"
       inkscape:export-xdpi="238.74001"
       inkscape:export-ydpi="238.74001"><textPath
         xlink:href="#path2147-6"
         id="textPath1022-9"
         style="font-size:2.82222px">   Contains Human rights   <tspan
   style="font-style:normal;font-variant:normal;font-weight:normal;font-stretch:normal;font-size:2.82222px;font-family:Lato;-inkscape-font-specification:Lato"
   id="tspan994-4">  Made by Humans        For Humans       </tspan></textPath></text>
  </g>
</svg>
